{
  "head" : {
    "vars" : [ "s", "p", "o" ]
  },
  "results" : {
    "bindings" : [ {
      "s" : {
        "type" : "bnode",
        "value" : "b978447119"
      },
      "p" : {
        "type" : "uri",
        "value" : "http://www.w3.org/1999/02/22-rdf-syntax-ns#type"
      },
      "o" : {
        "type" : "uri",
        "value" : "http://xmlns.com/foaf/0.1/Person"
      }
    }, {
      "s" : {
        "type" : "bnode",
        "value" : "b978447375"
      },
      "p" : {
        "type" : "uri",
        "value" : "http://www.w3.org/1999/02/22-rdf-syntax-ns#type"
      },
      "o" : {
        "type" : "uri",
        "value" : "http://xmlns.com/foaf/0.1/Person"
      }
    }, {
      "s" : {
        "type" : "bnode",
        "value" : "b978447119"
      },
      "p" : {
        "type" : "uri",
        "value" : "http://xmlns.com/foaf/0.1/knows"
      },
      "o" : {
        "type" : "bnode",
        "value" : "b978447375"
      }
    }, {
      "s" : {
        "type" : "bnode",
        "value" : "b978447631"
      },
      "p" : {
        "type" : "uri",
        "value" : "http://xmlns.com/foaf/0.1/knows"
      },
      "o" : {
        "type" : "bnode",
        "value" : "b978447887"
      }
    } ]
  }
}