{
  "head" : {
    "vars" : [ "x" ]
  },
  "results" : {
    "bindings" : [ {
      "x" : {
        "type" : "literal",
        "value" : "grapefruit"
      }
    }, {
      "x" : {
        "datatype" : "http://www.w3.org/2001/XMLSchema#integer",
        "type" : "literal",
        "value" : "0"
      }
    }, {
      "x" : {
        "datatype" : "http://www.w3.org/2001/XMLSchema#integer",
        "type" : "literal",
        "value" : "1"
      }
    }, {
      "x" : {
        "datatype" : "http://www.w3.org/2001/XMLSchema#integer",
        "type" : "literal",
        "value" : "3"
      }
    }, {
      "x" : {
        "datatype" : "http://www.w3.org/2001/XMLSchema#integer",
        "type" : "literal",
        "value" : "5"
      }
    }, {
      "x" : {
        "datatype" : "http://www.w3.org/2001/XMLSchema#integer",
        "type" : "literal",
        "value" : "6"
      }
    }, {
      "x" : {
        "datatype" : "http://www.w3.org/2001/XMLSchema#integer",
        "type" : "literal",
        "value" : "9"
      }
    }, {
      "x" : {
        "datatype" : "http://www.w3.org/2001/XMLSchema#integer",
        "type" : "literal",
        "value" : "10"
      }
    }, {
      "x" : {
        "datatype" : "http://www.w3.org/2001/XMLSchema#decimal",
        "type" : "literal",
        "value" : "5.0"
      }
    } ]
  }
}