{
  "head" : {
    "vars" : [ "moon", "planet" ]
  },
  "results" : {
    "bindings" : [ {
      "planet" : {
        "type" : "uri",
        "value" : "http://example.com/Mercury"
      }
    }, {
      "planet" : {
        "type" : "uri",
        "value" : "http://example.com/Ceres"
      },
      "moon" : {
        "type" : "uri",
        "value" : "http://example.com/Something"
      }
    }, {
      "planet" : {
        "type" : "uri",
        "value" : "http://example.com/Ceres"
      }
    }, {
      "planet" : {
        "type" : "uri",
        "value" : "http://example.com/Ceres"
      }
    }, {
      "planet" : {
        "type" : "uri",
        "value" : "http://example.com/Ceres"
      },
      "moon" : {
        "type" : "uri",
        "value" : "http://example.com/Nothing"
      }
    }, {
      "planet" : {
        "type" : "uri",
        "value" : "http://example.com/Venus"
      },
      "moon" : {
        "type" : "uri",
        "value" : "http://www.w3.org/1999/02/22-rdf-syntax-ns#null"
      }
    }, {
      "planet" : {
        "type" : "uri",
        "value" : "http://example.com/Earth"
      },
      "moon" : {
        "type" : "uri",
        "value" : "http://example.com/Moon"
      }
    }, {
      "planet" : {
        "type" : "uri",
        "value" : "http://example.com/Mars"
      },
      "moon" : {
        "type" : "uri",
        "value" : "http://example.com/Deimos"
      }
    }, {
      "planet" : {
        "type" : "uri",
        "value" : "http://example.com/Mars"
      },
      "moon" : {
        "type" : "uri",
        "value" : "http://example.com/Phobos"
      }
    }, {
      "planet" : {
        "type" : "uri",
        "value" : "http://example.com/Mars"
      },
      "moon" : {
        "type" : "uri",
        "value" : "http://example.com/Phobos"
      }
    } ]
  }
}